{
  "username": "Finn2",
  "password": "$2a$10$Vq2CMh/0BFFm7V81yefHy.d8m1z1c2D0fjZ27awrsPS6jeLh0ANqW",
  "staff-rights": "DEVELOPER",
  "game-mode": "NORMAL",
  "position": {
    "x": 3088,
    "y": 3489,
    "z": 0
  },
  "spell-book": "NORMAL",
  "fight-type": "UNARMED_KICK",
  "auto-retaliate": false,
  "received-starter": true,
  "xp-locked": false,
  "clanchat": "Run Escape",
  "target-teleport": false,
  "preserve": false,
  "rigour": false,
  "augury": false,
  "has-veng": false,
  "last-veng": -3385,
  "running": true,
  "run-energy": 100,
  "spec-percentage": 100,
  "recoil-damage": 0,
  "poison-damage": 0,
  "poison-immunity": -3385,
  "fire-immunity": -3385,
  "teleblock-timer": -3385,
  "prayerblock-timer": -3385,
  "target-search-timer": -3385,
  "special-attack-restore-timer": -3385,
  "skull-timer": -5523,
  "skull-type": "WHITE_SKULL",
  "total-kills": 0,
  "target-kills": 0,
  "normal-kills": 0,
  "killstreak": 0,
  "highest-killstreak": 0,
  "recent-kills": [],
  "deaths": 0,
  "points": 0,
  "amount-donated": 0,
  "blowpipe-scales": 0,
  "pouches": [
    {
      "pouch": "SMALL_POUCH",
      "runeEssenceAmt": 0,
      "pureEssenceAmt": 0
    },
    {
      "pouch": "MEDIUM_POUCH",
      "runeEssenceAmt": 0,
      "pureEssenceAmt": 0
    },
    {
      "pouch": "LARGE_POUCH",
      "runeEssenceAmt": 0,
      "pureEssenceAmt": 0
    },
    {
      "pouch": "GIANT_POUCH",
      "runeEssenceAmt": 0,
      "pureEssenceAmt": 0
    }
  ],
  "inventory": [
    {
      "id": 13666,
      "amount": 1
    },
    {
      "id": 590,
      "amount": 1
    },
    {
      "id": 1265,
      "amount": 1
    },
    {
      "id": 1351,
      "amount": 1
    },
    {
      "id": 841,
      "amount": 1
    },
    {
      "id": 1379,
      "amount": 1
    },
    {
      "id": 1277,
      "amount": 1
    },
    {
      "id": -1,
      "amount": 0
    },
    {
      "id": -1,
      "amount": 0
    },
    {
      "id": -1,
      "amount": 0
    },
    {
      "id": -1,
      "amount": 0
    },
    {
      "id": -1,
      "amount": 0
    },
    {
      "id": -1,
      "amount": 0
    },
    {
      "id": -1,
      "amount": 0
    },
    {
      "id": -1,
      "amount": 0
    },
    {
      "id": -1,
      "amount": 0
    },
    {
      "id": -1,
      "amount": 0
    },
    {
      "id": -1,
      "amount": 0
    },
    {
      "id": -1,
      "amount": 0
    },
    {
      "id": -1,
      "amount": 0
    },
    {
      "id": -1,
      "amount": 0
    },
    {
      "id": -1,
      "amount": 0
    },
    {
      "id": -1,
      "amount": 0
    },
    {
      "id": -1,
      "amount": 0
    },
    {
      "id": -1,
      "amount": 0
    },
    {
      "id": -1,
      "amount": 0
    },
    {
      "id": -1,
      "amount": 0
    },
    {
      "id": -1,
      "amount": 0
    }
  ],
  "collections": [
    {
      "id": -1,
      "amount": 0
    },
    {
      "id": -1,
      "amount": 0
    },
    {
      "id": -1,
      "amount": 0
    },
    {
      "id": -1,
      "amount": 0
    },
    {
      "id": -1,
      "amount": 0
    },
    {
      "id": -1,
      "amount": 0
    },
    {
      "id": -1,
      "amount": 0
    },
    {
      "id": -1,
      "amount": 0
    },
    {
      "id": -1,
      "amount": 0
    },
    {
      "id": -1,
      "amount": 0
    },
    {
      "id": -1,
      "amount": 0
    },
    {
      "id": -1,
      "amount": 0
    },
    {
      "id": -1,
      "amount": 0
    },
    {
      "id": -1,
      "amount": 0
    },
    {
      "id": -1,
      "amount": 0
    },
    {
      "id": -1,
      "amount": 0
    },
    {
      "id": -1,
      "amount": 0
    },
    {
      "id": -1,
      "amount": 0
    },
    {
      "id": -1,
      "amount": 0
    },
    {
      "id": -1,
      "amount": 0
    },
    {
      "id": -1,
      "amount": 0
    },
    {
      "id": -1,
      "amount": 0
    },
    {
      "id": -1,
      "amount": 0
    },
    {
      "id": -1,
      "amount": 0
    },
    {
      "id": -1,
      "amount": 0
    },
    {
      "id": -1,
      "amount": 0
    },
    {
      "id": -1,
      "amount": 0
    },
    {
      "id": -1,
      "amount": 0
    }
  ],
  "equipment": [
    {
      "id": -1,
      "amount": 0
    },
    {
      "id": -1,
      "amount": 0
    },
    {
      "id": -1,
      "amount": 0
    },
    {
      "id": -1,
      "amount": 0
    },
    {
      "id": -1,
      "amount": 0
    },
    {
      "id": -1,
      "amount": 0
    },
    {
      "id": -1,
      "amount": 0
    },
    {
      "id": -1,
      "amount": 0
    },
    {
      "id": -1,
      "amount": 0
    },
    {
      "id": -1,
      "amount": 0
    },
    {
      "id": -1,
      "amount": 0
    },
    {
      "id": -1,
      "amount": 0
    },
    {
      "id": -1,
      "amount": 0
    },
    {
      "id": -1,
      "amount": 0
    }
  ],
  "appearance": [
    0,
    3,
    18,
    26,
    34,
    38,
    42,
    14,
    2,
    14,
    5,
    4,
    0
  ],
  "skills": {
    "level": [
      99,
      99,
      99,
      48,
      99,
      99,
      99,
      99,
      99,
      99,
      99,
      99,
      99,
      99,
      99,
      99,
      99,
      99,
      99,
      99,
      99,
      99,
      99
    ],
    "maxLevel": [
      99,
      99,
      99,
      99,
      99,
      99,
      99,
      99,
      99,
      99,
      99,
      99,
      99,
      99,
      99,
      99,
      99,
      99,
      99,
      99,
      99,
      99,
      99
    ],
    "experience": [
      13034431,
      13034431,
      13485511,
      13349851,
      13034431,
      13034431,
      13034431,
      13034431,
      13034431,
      13034431,
      13034431,
      13034431,
      13034431,
      13034431,
      13034431,
      13034431,
      13034431,
      13034431,
      13034431,
      13034431,
      13034431,
      13034431,
      13034431
    ]
  },
  "quick-prayers": [
    null,
    null,
    null,
    null,
    null,
    null,
    null,
    null,
    null,
    null,
    null,
    null,
    null,
    null,
    null,
    null,
    null,
    null,
    null,
    null,
    null,
    null,
    null,
    null,
    null,
    null,
    null,
    null,
    null
  ],
  "friends": [],
  "ignores": [],
  "ge-slots": [
    {
      "state": "EMPTY"
    },
    null,
    null,
    null,
    null,
    null
  ],
  "bank-0": [],
  "bank-1": [],
  "bank-2": [],
  "bank-3": [],
  "bank-4": [],
  "bank-5": [],
  "bank-6": [],
  "bank-7": [],
  "bank-8": [],
  "bank-9": []
}